{
  "name": "contacts-manager-api",
  "env": {
    "NODE_ENV": "production",
    "SECRET": "vhjdbjkewjehjbedbheei",
    "DEFAULT_PASSWORD": "hjjhrjkerkjre",
    "SUPER_USERNAME": "superuser",
    "SUPER_PASS": "passworder",
    "SUPER_EMAIL": "ogatimo@gmail.com",
    "MONGO_URL": "mongodb://admin:Eberenus93@ds215563.mlab.com:15563/contacts_tracking_db",
    "MAILGUN_SMTP_LOGIN": "postmaster@sandbox1e166afa82264068b3339af42ca5be0a.mailgun.org",
    "MAILGUN_SMTP_PASSWORD": "ba476186d2cc397e3da0d72b995150c0",
    "MAPS_API_KEY": "AIzaSyATzkzdQmXrM_H6aovQh0O8yr5_1yOlEQA"
  },
  "alias": "contacts-manager-api"
}